<?xml version="1.0" encoding="UTF-8"?>
<svg width="14px" height="12px" viewBox="0 0 14 12" version="1.1" xmlns="http://www.w3.org/2000/svg" xmlns:xlink="http://www.w3.org/1999/xlink">
    <!-- Generator: Sketch 52.6 (67491) - http://www.bohemiancoding.com/sketch -->
    <title>arrow-right-light-grey</title>
    <desc>Created with Sketch.</desc>
    <defs>
        <path d="M14.8673994,10.5416667 L11,7.10125 L12.5222672,5.75 L19,11.5 L12.5222672,17.25 L11,15.89875 L14.8673994,12.4583333 L5,12.4583333 L5,10.5416667 L14.8673994,10.5416667 Z" id="path-1"></path>
    </defs>
    <g id="iSPORT" stroke="none" stroke-width="1" fill="none" fill-rule="evenodd">
        <g id="212_iSPORT_Journey" transform="translate(-840.000000, -686.000000)">
            <g id="Lihat-Event-Terdekat" transform="translate(655.000000, 646.398438)">
                <g id="icon/arrow/right/#1" transform="translate(180.000000, 34.000000)">
                    <mask id="mask-2" fill="white">
                        <use xlink:href="#path-1"></use>
                    </mask>
                    <g id="arrow"></g>
                    <g id="color/color#4" mask="url(#mask-2)" fill="#CCCCCC" fill-rule="evenodd">
                        <rect id="color#4" x="0" y="0" width="24" height="23"></rect>
                    </g>
                </g>
            </g>
        </g>
    </g>
</svg>