<?xml version="1.0" encoding="UTF-8"?>
<svg width="14px" height="24px" viewBox="0 0 14 24" version="1.1" xmlns="http://www.w3.org/2000/svg" xmlns:xlink="http://www.w3.org/1999/xlink">
    <!-- Generator: Sketch 52.5 (67469) - http://www.bohemiancoding.com/sketch -->
    <title>chevron-right-grey</title>
    <desc>Created with Sketch.</desc>
    <defs>
        <path d="M4.3570226,12 L13.1785113,3.1785113 C13.8293851,2.52763748 13.8293851,1.47236252 13.1785113,0.821488698 C12.5276375,0.170614878 11.4723625,0.170614878 10.8214887,0.821488698 L0.821488698,10.8214887 C0.170614878,11.4723625 0.170614878,12.5276375 0.821488698,13.1785113 L10.8214887,23.1785113 C11.4723625,23.8293851 12.5276375,23.8293851 13.1785113,23.1785113 C13.8293851,22.5276375 13.8293851,21.4723625 13.1785113,20.8214887 L4.3570226,12 Z" id="path-1"></path>
    </defs>
    <g id="Page-1" stroke="none" stroke-width="1" fill="none" fill-rule="evenodd">
        <g id="chevron-right-grey">
            <g id="chevron-left-copy" transform="translate(7.000000, 12.000000) scale(-1, 1) translate(-7.000000, -12.000000) ">
                <g id="Shape" fill="#000000">
                    <path d="M4.3570226,12 L13.1785113,3.1785113 C13.8293851,2.52763748 13.8293851,1.47236252 13.1785113,0.821488698 C12.5276375,0.170614878 11.4723625,0.170614878 10.8214887,0.821488698 L0.821488698,10.8214887 C0.170614878,11.4723625 0.170614878,12.5276375 0.821488698,13.1785113 L10.8214887,23.1785113 C11.4723625,23.8293851 12.5276375,23.8293851 13.1785113,23.1785113 C13.8293851,22.5276375 13.8293851,21.4723625 13.1785113,20.8214887 L4.3570226,12 Z" id="path-1"></path>
                </g>
                <g id="COLOR/-black-Clipped">
                    <mask id="mask-2" fill="white">
                        <use xlink:href="#path-1"></use>
                    </mask>
                    <g id="path-1"></g>
                    <g id="COLOR/-black" mask="url(#mask-2)">
                        <g transform="translate(-13.000000, -8.000000)" id="Rectangle">
                            <g>
                                <rect fill="#0056A6" x="0" y="0" width="40" height="40"></rect>
                            </g>
                        </g>
                    </g>
                </g>
            </g>
        </g>
    </g>
</svg>