<?xml version="1.0" encoding="UTF-8"?>
<svg width="18px" height="13px" viewBox="0 0 18 13" version="1.1" xmlns="http://www.w3.org/2000/svg" xmlns:xlink="http://www.w3.org/1999/xlink">
    <!-- Generator: Sketch 52.6 (67491) - http://www.bohemiancoding.com/sketch -->
    <title>Group 2</title>
    <desc>Created with Sketch.</desc>
    <g id="KADO" stroke="none" stroke-width="1" fill="none" fill-rule="evenodd">
        <g id="709_KADO_JourneyWhatsapp" transform="translate(-1210.000000, -700.000000)">
            <g id="Aktivasi-Kado" transform="translate(1178.000000, 696.000000)">
                <g id="Group-9" transform="translate(32.000000, 4.000000)">
                    <g id="Group-8">
                        <g id="Group-2">
                            <path d="M5.94394856,2.33633448 C6.16138234,1.61174466 6.96269101,1.67844836 7.23774219,1.76052735 C8.20842374,2.04991735 8.40966713,4.1275796 8.39895085,6.26502434 C7.3685643,5.67885863 5.58210015,3.54220356 5.94394856,2.33633448 M5.88197042,0.611839511 C2.25518237,1.93601939 6.75894252,8.05887072 8.78334519,8.21801199 C9.77675825,8.29632845 9.90771954,7.85601902 9.90771954,7.85601902 C9.90771954,7.85601902 10.6007056,-1.11181934 5.88197042,0.611839511" id="Fill-4" fill="#FFFFFF"></path>
                            <path d="M10.3175155,6.91487428 C11.4234691,5.01585467 12.7611018,3.23750599 13.7575531,3.49756021 C14.0399313,3.57125824 14.7726161,3.93850087 14.5839556,4.69596878 C14.2699142,5.95665602 11.5208148,6.94385449 10.3175155,6.91487428 M8.25139143,7.47629393 C8.25139143,7.47629393 8.13571676,7.93599495 9.04184291,8.39516819 C10.8881144,9.33126745 18.0057115,6.30393876 15.5378123,3.20147264 C12.3272393,-0.835941207 8.25139143,7.47629393 8.25139143,7.47629393" id="Fill-8" fill="#FFFFFF"></path>
                            <path d="M9.47597598,4.13922326 C8.67067543,5.77600826 7.92053246,7.21276937 7.92053246,7.21276937 C7.92053246,7.21276937 7.75895322,7.75836437 8.56248007,8.21995421 C9.4639062,8.29016966 9.58503656,7.83696084 9.58503656,7.83696084 C9.58503656,7.83696084 9.67147172,5.93144704 9.47597598,4.13922326" id="Fill-6" fill="#FFFFFF"></path>
                            <path d="M1.4795675,5.17354259 C1.30080634,5.12393874 1.11582084,5.2289627 1.06630904,5.40822693 L1.06541311,5.41148972 L0.453447316,7.62749058 C0.403935521,7.8067548 0.508711912,7.99226088 0.687473072,8.04191201 L0.881983699,8.09591352 L15.8372339,12.2491596 L16.0317445,12.3031611 C16.2105057,12.3528123 16.3954912,12.247741 16.445003,12.0685241 L17.0569688,9.85252321 L17.0578647,9.84921314 C17.1073765,9.6699962 17.0026001,9.48449012 16.8238861,9.43483899 L1.4795675,5.17354259 Z" id="Fill-12" fill="#004FB6"></path>
                        </g>
                    </g>
                </g>
            </g>
        </g>
    </g>
</svg>