<?xml version="1.0" encoding="UTF-8"?>
<svg width="6px" height="7px" viewBox="0 0 6 7" version="1.1" xmlns="http://www.w3.org/2000/svg" xmlns:xlink="http://www.w3.org/1999/xlink">
    <!-- Generator: Sketch 52.3 (67297) - http://www.bohemiancoding.com/sketch -->
    <title>Group 6</title>
    <desc>Created with Sketch.</desc>
    <g id="iSPORT" stroke="none" stroke-width="1" fill="none" fill-rule="evenodd" opacity="0.979999959" stroke-linecap="square">
        <g id="211_iSPORT_Journey" transform="translate(-1261.000000, -611.000000)" stroke="#A69300" stroke-width="2">
            <g id="Group-8" transform="translate(852.000000, 592.000000)">
                <g id="Group-7" transform="translate(402.000000, 13.000000)">
                    <g id="Group-6" transform="translate(8.500000, 7.500000)">
                        <path d="M0.4125,4.41145833 L0.4125,0.126041667" id="Line-3"></path>
                        <path d="M2.9125,4.41145833 L2.9125,0.126041667" id="Line-3-Copy"></path>
                    </g>
                </g>
            </g>
        </g>
    </g>
</svg>