<?xml version="1.0" encoding="UTF-8"?>
<svg width="31px" height="26px" viewBox="0 0 31 26" version="1.1" xmlns="http://www.w3.org/2000/svg" xmlns:xlink="http://www.w3.org/1999/xlink">
    <!-- Generator: Sketch 52.3 (67297) - http://www.bohemiancoding.com/sketch -->
    <title>Path</title>
    <desc>Created with Sketch.</desc>
    <g id="Symbols" stroke="none" stroke-width="1" fill="none" fill-rule="evenodd">
        <g id="Footer" transform="translate(-674.000000, -319.000000)" fill="#FFFFFF">
            <g id="FOOTER-FIXED:c2all">
                <g id="FOOTER-Copy" transform="translate(0.000000, 0.445674)">
                    <g id="Social-Media-Icons" transform="translate(625.000000, 319.000000)">
                        <path d="M58.8422746,25 C70.4525119,25 76.8028218,15.3810034 76.8028218,7.03945278 C76.8028218,6.76624177 76.8028218,6.49426144 76.7843616,6.22351179 C78.019757,5.32992824 79.0861711,4.223508 79.9336723,2.95605579 C78.7816068,3.46654413 77.5594801,3.80132223 76.3080884,3.94921473 C77.6258318,3.16032663 78.6120738,1.91954243 79.0832723,0.457774932 C77.8441711,1.19305137 76.4885628,1.71123754 75.0749468,1.98997181 C73.1182671,-0.0906232181 70.0091216,-0.599856167 67.4909405,0.747821558 C64.9727595,2.09549928 63.6718022,4.96492679 64.3175709,7.74709391 C59.2421174,7.4926502 54.5133271,5.09537587 51.3080503,1.15187858 C49.6326302,4.0361558 50.4884023,7.72599941 53.2623705,9.57834609 C52.2578169,9.54857291 51.2751657,9.27758406 50.3973469,8.78824938 C50.3973469,8.81409367 50.3973469,8.84116863 50.3973469,8.8682436 C50.3981692,11.8730638 52.5162724,14.4611132 55.461596,15.0561038 C54.532272,15.3095501 53.5572175,15.3465988 52.6113406,15.1644036 C53.4382936,17.735815 55.8081243,19.4973627 58.5087603,19.5480866 C56.2735189,21.3047989 53.5122718,22.2584478 50.6693272,22.2555831 C50.167091,22.2546189 49.6653433,22.22421 49.1666667,22.1645128 C52.0533944,24.0170269 55.4122622,24.9996516 58.8422746,24.9950773" id="Path"></path>
                    </g>
                </g>
            </g>
        </g>
    </g>
</svg>