<svg xmlns="http://www.w3.org/2000/svg" width="20" height="20" viewBox="0 0 20 20">
    <g fill="#0056A6" fill-rule="evenodd">
        <path d="M18.094 19.964c-.37 0-.724-.15-.985-.419L.374 2.402A1.454 1.454 0 0 1 .408.418 1.37 1.37 0 0 1 2.345.383L19.08 17.526c.398.409.517 1.023.302 1.556a1.395 1.395 0 0 1-1.288.882z"/>
        <path d="M1.393 19.964a1.395 1.395 0 0 1-1.287-.882 1.454 1.454 0 0 1 .302-1.556L17.143.383a1.37 1.37 0 0 1 1.936.035c.531.544.547 1.422.035 1.984L2.379 19.545a1.378 1.378 0 0 1-.986.42z"/>
    </g>
</svg>
