<svg xmlns="http://www.w3.org/2000/svg" width="20" height="20" viewBox="0 0 20 20">
    <path fill="#004FB6" fill-rule="nonzero" d="M20 9.742c0 5.381-4.395 9.743-9.818 9.743a9.835 9.835 0 0 1-4.746-1.212L0 20l1.772-5.227a9.64 9.64 0 0 1-1.409-5.03C.363 4.361 4.76 0 10.182 0 15.605 0 20 4.362 20 9.742zm-9.667-8.409C5.738 1.333 2 5.072 2 9.667c0 1.823.59 3.512 1.587 4.885l-1.04 3.095 3.202-1.025A8.282 8.282 0 0 0 10.333 18c4.595 0 8.334-3.738 8.334-8.333 0-4.595-3.739-8.334-8.334-8.334zm4.965 10.905c-.062-.102-.226-.164-.472-.287-.246-.124-1.456-.72-1.681-.802-.226-.082-.39-.123-.554.123-.164.247-.635.802-.779.966-.144.165-.287.186-.533.062-.246-.123-1.039-.383-1.978-1.223-.732-.653-1.226-1.459-1.37-1.706-.143-.247-.014-.38.109-.502.11-.11.246-.288.369-.432.123-.144.164-.246.246-.411.082-.165.041-.308-.02-.432-.062-.123-.555-1.336-.76-1.83-.204-.492-.41-.41-.553-.41-.143 0-.308-.02-.472-.02a.904.904 0 0 0-.656.308c-.225.246-.86.842-.86 2.055 0 1.212.88 2.384 1.004 2.548.123.164 1.701 2.733 4.203 3.72 2.501.986 2.501.657 2.952.616.451-.04 1.456-.596 1.661-1.17.205-.577.205-1.07.144-1.173z"/>
</svg>
