<?xml version="1.0" encoding="UTF-8"?>
<svg width="122px" height="134px" viewBox="0 0 122 134" version="1.1" xmlns="http://www.w3.org/2000/svg" xmlns:xlink="http://www.w3.org/1999/xlink">
    <!-- Generator: Sketch 52.3 (67297) - http://www.bohemiancoding.com/sketch -->
    <title>Group 6</title>
    <desc>Created with Sketch.</desc>
    <defs>
        <filter x="-8.2%" y="-69.2%" width="116.4%" height="238.5%" filterUnits="objectBoundingBox" id="filter-1">
            <feGaussianBlur stdDeviation="3" in="SourceGraphic"></feGaussianBlur>
        </filter>
    </defs>
    <g id="HOMEPAGE" stroke="none" stroke-width="1" fill="none" fill-rule="evenodd">
        <g id="104_Homepage_Life_Desktop_1" transform="translate(-214.000000, -3933.000000)">
            <g id="KENAPA-MEMILIH-ASTRA-LIFE" transform="translate(102.000000, 3374.000000)">
                <g id="Virtual-Assistant" transform="translate(53.000000, 559.000000)">
                    <g id="Group-6" transform="translate(65.000000, 0.000000)">
                        <ellipse id="Oval-Copy-6" fill="#000000" opacity="0.100000001" filter="url(#filter-1)" cx="55" cy="120.5" rx="55" ry="6.5"></ellipse>
                        <g id="ASTRALIFE_ICONS-04" transform="translate(23.000000, 0.000000)">
                            <path d="M48.1641469,49.6900648 C39.2969762,55.2354212 27.8844492,56.8844492 18.0809935,53.2429806 C10.7991361,50.5399568 4.64362851,44.7926566 1.48164147,37.7570194 L1.48164147,45.4762419 C1.48164147,55.3293737 6.62311015,64.0097192 14.3552916,68.9794816 L14.8326134,68.9794816 L14.4157667,69.0669546 L23.1544276,75.4611231 L38.5,75.8930886 L46.6641469,68.9816415 L46.7602592,68.9816415 C54.4924406,64.0140389 59.6339093,55.3315335 59.6339093,45.4784017 L59.6339093,38.762419 C56.537797,43.1015119 52.6781857,46.8682505 48.1641469,49.6900648 Z M22.6274298,67.3477322 C22.7698563,66.183851 23.6374265,65.2397745 24.7851558,64.9997282 C25.9328851,64.7596818 27.1060902,65.2769322 27.7030238,66.2861771 L22.6274298,67.3477322 Z" id="Shape" fill="#043654" fill-rule="nonzero"></path>
                            <path d="M56.687905,38.762419 L56.6954644,4.48164147 C54.9928251,6.26086209 53.0209239,7.76119794 50.8520518,8.92764579 C46.4362851,11.3164147 41.5323974,12.3488121 36.6609071,13.0313175 C29.5928726,14.0140389 22.2656587,14.275378 15.4946004,11.8110151 C11.2850972,10.275378 7.31209503,7.53131749 4.42764579,3.8488121 L4.42764579,37.7580994 L4.42764579,45.4773218 C4.42764579,55.3304536 9.04859611,64.0107991 15.9989201,68.9805616 L16.4308855,68.9805616 L16.0561555,69.0680346 L23.9103672,75.462203 L37.7041037,75.8941685 L45.0421166,68.9827214 L45.1241901,68.9827214 C52.074514,64.0151188 56.6954644,55.3326134 56.6954644,45.4794816 L56.6954644,38.762419 C55.6637668,40.377523 54.524017,41.9210018 53.2840173,43.3822894 C54.5214206,41.9207685 55.6586407,40.3772953 56.687905,38.762419 Z M11.0075594,26.5885529 C11.2235421,21.0917927 15.2699784,16.5151188 20.2095032,16.1781857 C20.4146868,16.1673866 20.612311,16.1598272 20.8099352,16.1598272 C23.6457883,16.1598272 26.1965443,17.4967603 27.9848812,19.6393089 C28.6097805,20.4245288 29.5585665,20.8820288 30.562095,20.8820288 C31.5656236,20.8820288 32.5144095,20.4245288 33.1393089,19.6393089 C34.925486,17.5 37.4784017,16.1598272 40.3142549,16.1598272 C40.512959,16.1598272 40.7170626,16.1706263 40.925486,16.1781857 C45.7732181,16.5140389 49.7840173,20.950324 50.1079914,26.349892 C50.450324,32.2084233 46.6382289,37.1403888 41.6382289,37.8941685 L41.6317495,38.0021598 L20.2559395,38.0021598 L20.2559395,37.9719222 C14.9470842,37.6468683 10.762419,32.6403888 11.0032397,26.5885529 L11.0075594,26.5885529 Z M16.7311015,51.9665227 C16.9967603,52.1155508 17.2634989,52.2613391 17.5334773,52.3984881 C17.2591793,52.2678186 16.9924406,52.1187905 16.7267819,51.9697624 L16.7311015,51.9665227 Z M19.0788337,53.1317495 C19.1663067,53.1684665 19.2537797,53.2084233 19.3412527,53.2397408 C19.8020158,53.4298056 20.2660187,53.6054716 20.7332613,53.7667387 C20.2652988,53.6047516 19.8012959,53.4290857 19.3412527,53.2397408 C19.2537797,53.2073434 19.1663067,53.1673866 19.0788337,53.1317495 Z M27.4740821,55.12527 C27.3153348,55.1144708 27.150108,55.1025918 26.9967603,55.0885529 C27.1555076,55.1015119 27.3153348,55.1133909 27.4740821,55.1241901 L27.4740821,55.12527 Z M26.2105832,55.0107991 C26.0291577,54.9892009 25.8466523,54.9665227 25.6706263,54.9416847 C25.8466523,54.9676026 26.0259179,54.988121 26.2105832,55.0097192 L26.2105832,55.0107991 Z M24.9276458,54.8315335 C24.7321814,54.7991361 24.537797,54.7645788 24.3423326,54.7235421 C24.537797,54.7634989 24.7300216,54.7980562 24.9276458,54.8304536 L24.9276458,54.8315335 Z M23.650108,54.587473 L23.4794816,54.549676 L23.650108,54.587473 Z M22.3887689,54.2796976 C22.0215983,54.1803456 21.6558675,54.0723542 21.2915767,53.9557235 C21.6587473,54.0723542 22.0259179,54.1803456 22.3930886,54.2796976 L22.3887689,54.2796976 Z M23.425486,67.3466523 C23.5777538,65.9913607 24.6133909,64.9427646 25.8704104,64.9427646 C26.7721382,64.9427646 27.5561555,65.4827214 27.9859611,66.2850972 L23.425486,67.3466523 Z M38.5615551,53.6317495 C38.4222462,53.6792657 38.2818575,53.724622 38.1425486,53.7699784 C38.2861771,53.7257019 38.4265659,53.6803456 38.5658747,53.6328294 L38.5615551,53.6317495 Z M33.2289417,54.9028078 L33.1209503,54.9168467 L33.2289417,54.9028078 Z M46.0010799,49.9460043 C46.1263499,49.8617711 46.2516199,49.7764579 46.3758099,49.6889849 C46.8077754,49.3920086 47.2224622,49.0820734 47.6360691,48.7645788 C47.2224622,49.0820734 46.8034557,49.3920086 46.3758099,49.6889849 C46.2559395,49.7775378 46.1306695,49.862851 46.0043197,49.9470842 L46.0010799,49.9460043 Z M45.1457883,50.5021598 C45.2811375,50.4179266 45.4150468,50.3326134 45.5475162,50.2462203 C45.4200864,50.3333333 45.287617,50.4190065 45.150108,50.5032397 L45.1457883,50.5021598 Z" id="Shape" fill="#0056A6" fill-rule="nonzero"></path>
                            <path d="M18.0788337,53.2397408 C27.8822894,56.8812095 39.2948164,55.2321814 48.161987,49.6868251 C52.6781857,46.862851 56.537797,43.0993521 59.6295896,38.7591793 L59.6295896,4.47840173 C57.7016723,6.28225356 55.5106865,7.78247986 53.1317495,8.92764579 C48.2181425,11.3164147 42.7645788,12.3488121 37.3423326,13.0313175 C29.4784017,14.0140389 21.3261339,14.275378 13.800216,11.8110151 C9.11987041,10.2796976 4.69978402,7.53563715 1.48920086,3.85313175 L1.48920086,37.762419 C4.64362851,44.7926566 10.7991361,50.5399568 18.0788337,53.2397408 Z M8.80237581,26.5853132 C9.04103672,21.0885529 13.5442765,16.511879 19.0399568,16.174946 C19.2678186,16.1641469 19.488121,16.1565875 19.7084233,16.1565875 C22.7382597,16.1517962 25.6322796,17.4132317 27.6911447,19.6360691 C28.4339139,20.4289588 29.4718623,20.8788651 30.5583153,20.8788651 C31.6447683,20.8788651 32.6827168,20.4289588 33.425486,19.6360691 C35.484741,17.4137809 38.3785079,16.1524556 41.4082073,16.1565875 C41.6241901,16.1565875 41.8563715,16.1673866 42.087473,16.174946 C47.487041,16.5107991 51.9514039,20.9427646 52.3066955,26.3455724 C52.6876626,32.0725685 48.5696533,37.1168587 42.8822894,37.8898488 L42.8758099,37.9978402 L19.0961123,37.9978402 L19.0961123,37.9676026 C13.125877,37.6373392 8.53453692,32.5619143 8.80237581,26.5885529 L8.80237581,26.5853132 Z" id="Shape" fill="#043654" fill-rule="nonzero"></path>
                            <path d="M8.43196544,93.4838013 C10.5917927,91.5939525 11.8444924,88.9017279 12.9848812,86.2699784 C14.12527,83.6382289 15.2526998,80.9146868 17.2473002,78.8520518 C19.7829374,76.2300216 23.475162,74.9762419 27.112311,74.6976242 C30.74946,74.4190065 34.3920086,75.0215983 37.9902808,75.6263499 C41.6846652,76.2419006 45.8347732,77.1511879 47.8077754,80.3390929 C48.9492441,82.1825054 49.1155508,84.4427646 49.7613391,86.5151188 C51.0010799,90.487041 54.2667387,93.6565875 58.1414687,95.1274298 L62.0226782,91.7149028 C63.7570194,90.1403888 63.9136069,87.4600432 62.4168467,85.6479482 C56.4276458,76.0367171 45,69.4935205 31.8401728,69.4935205 C18.5226782,69.4935205 6.93844492,76.1889849 1.02699784,85.9632829 C-0.322171812,87.648013 -0.220734912,90.0700496 1.26457883,91.6360691 L4.35637149,94.8758099 L6.15550756,94.9071274 C6.98454927,94.5555328 7.7528391,94.0751695 8.43196544,93.4838013 Z" id="Path" fill="#3188C9"></path>
                            <path d="M4.35961123,94.8758099 L4.80669546,95.3455724 C5.26821968,95.2390181 5.71954261,95.0923111 6.15550756,94.9071274 L4.35961123,94.8758099 Z" id="Path" fill="#3188C9"></path>
                            <path d="M49.7613391,86.5151188 C49.1133909,84.4449244 48.9492441,82.1825054 47.8077754,80.3390929 C45.8347732,77.1511879 41.6846652,76.2419006 37.9902808,75.6263499 C34.3920086,75.024838 30.7548596,74.4200864 27.112311,74.6976242 C23.4697624,74.975162 19.7829374,76.2300216 17.2473002,78.8520518 C15.2537797,80.9146868 14.12527,83.637149 12.9848812,86.2699784 C11.8444924,88.9028078 10.5896328,91.5939525 8.43196544,93.4838013 C7.7528391,94.0751695 6.98454927,94.5555328 6.15550756,94.9071274 C5.71849639,95.0924902 5.2660819,95.2391997 4.80345572,95.3455724 L7.88336933,98.5723542 C9.53563715,100.300216 12.2948164,100.384449 13.950324,98.7289417 L17.7721382,95.1069114 L21.5161987,91.5583153 C23.2440605,89.9838013 23.3282937,87.2257019 21.6727862,85.4913607 L18.4470842,82.1814255 C22.3088553,79.6598272 26.8790497,78.2419006 31.8434125,78.2419006 C36.8077754,78.2419006 41.3779698,79.6598272 45.2343413,82.1814255 L42.1598272,84.9395248 C40.3477322,86.4362851 40.1911447,89.1954644 41.7667387,91.0075594 L45.8455724,95.5896328 L48.1490281,98.1814255 C49.7235421,99.9935205 52.4038877,100.150108 54.2159827,98.575594 L57.387689,95.7883369 L58.1436285,95.1263499 C54.2667387,93.6565875 51.0010799,90.487041 49.7613391,86.5151188 Z" id="Path" fill="#0056A6"></path>
                            <path d="M25.3466523,64.9438445 C24.6176589,64.9441292 23.9187156,65.2343644 23.403949,65.7505491 C22.8891823,66.2667339 22.6008711,66.966473 22.6025918,67.6954644 L22.6025918,71.2051836 C22.6025918,72.7206863 23.8311495,73.9492441 25.3466523,73.9492441 C26.862155,73.9492441 28.0907127,72.7206863 28.0907127,71.2051836 L28.0907127,67.6954644 C28.0924335,66.966473 27.8041222,66.2667339 27.2893556,65.7505491 C26.7745889,65.2343644 26.0756457,64.9441292 25.3466523,64.9438445 Z" id="Path" fill="#043654"></path>
                            <path d="M35.7634989,64.9438445 C35.0345055,64.9441292 34.3355623,65.2343644 33.8207956,65.7505491 C33.3060289,66.2667339 33.0177177,66.966473 33.0194384,67.6954644 L33.0194384,71.2051836 C33.0194384,72.7206863 34.2479962,73.9492441 35.7634989,73.9492441 C37.2790017,73.9492441 38.5075594,72.7206863 38.5075594,71.2051836 L38.5075594,67.6954644 C38.5092801,66.966473 38.2209689,66.2667339 37.7062022,65.7505491 C37.1914356,65.2343644 36.4924923,64.9441292 35.7634989,64.9438445 Z" id="Path" fill="#043654"></path>
                            <path d="M31.4892009,28.9416847 C30.9662203,28.4483922 30.1493305,28.4483922 29.6263499,28.9416847 L27.8822894,30.5842333 C27.4245328,31.0183446 27.3265131,31.7107483 27.6457883,32.2548596 L29.3855292,36.0226782 C29.6292992,36.4388601 30.0754568,36.6945901 30.5577754,36.6945901 C31.040094,36.6945901 31.4862515,36.4388601 31.7300216,36.0226782 L33.4697624,32.2548596 C33.7931425,31.708782 33.6924581,31.0111828 33.2278618,30.5788337 L31.4892009,28.9416847 Z" id="Path" fill="#043654"></path>
                            <path d="M15.8218143,26.7591793 C15.8218143,31.6360691 23.1360691,31.6360691 23.1360691,26.7591793 C23.1360691,21.8822894 15.8218143,21.8866091 15.8218143,26.7591793 Z" id="Path" fill="#043654"></path>
                            <path d="M38.2688985,26.7591793 C38.2688985,31.6360691 45.5799136,31.6360691 45.5799136,26.7591793 C45.5799136,21.8822894 38.2688985,21.8866091 38.2688985,26.7591793 Z" id="Path" fill="#043654"></path>
                            <path d="M35.7634989,64.9438445 C35.0345055,64.9441292 34.3355623,65.2343644 33.8207956,65.7505491 C33.3060289,66.2667339 33.0177177,66.966473 33.0194384,67.6954644 L33.0194384,71.2051836 C33.0194384,72.7206863 34.2479962,73.9492441 35.7634989,73.9492441 C37.2790017,73.9492441 38.5075594,72.7206863 38.5075594,71.2051836 L38.5075594,67.6954644 C38.5092801,66.966473 38.2209689,66.2667339 37.7062022,65.7505491 C37.1914356,65.2343644 36.4924923,64.9441292 35.7634989,64.9438445 Z" id="Path"></path>
                            <path d="M25.3466523,64.9438445 C24.6176589,64.9441292 23.9187156,65.2343644 23.403949,65.7505491 C22.8891823,66.2667339 22.6008711,66.966473 22.6025918,67.6954644 L22.6025918,71.2051836 C22.6025918,72.7206863 23.8311495,73.9492441 25.3466523,73.9492441 C26.862155,73.9492441 28.0907127,72.7206863 28.0907127,71.2051836 L28.0907127,67.6954644 C28.0924335,66.966473 27.8041222,66.2667339 27.2893556,65.7505491 C26.7745889,65.2343644 26.0756457,64.9441292 25.3466523,64.9438445 Z" id="Path"></path>
                            <path d="M19.0961123,38.0021598 L42.8725702,38.0021598 L42.8790497,37.8941685 C48.5677126,37.122721 52.6875051,32.0779808 52.3066955,26.349892 C51.9514039,20.950324 47.487041,16.5151188 42.087473,16.1792657 C41.8563715,16.1717063 41.6285097,16.1609071 41.4082073,16.1609071 C38.3785079,16.1567752 35.484741,17.4181006 33.425486,19.6403888 C32.6827168,20.4332785 31.6447683,20.8831848 30.5583153,20.8831848 C29.4718623,20.8831848 28.4339139,20.4332785 27.6911447,19.6403888 C25.6322796,17.4175514 22.7382597,16.1561158 19.7084233,16.1609071 C19.4924406,16.1609071 19.2678186,16.1684665 19.0399568,16.1792657 C13.5442765,16.5161987 9.04103672,21.0928726 8.80237581,26.5896328 C8.53209536,32.5646426 13.1241172,37.6427482 19.0961123,37.9730022 L19.0961123,38.0021598 Z" id="Path"></path>
                            <path d="M25.3466523,64.9438445 C24.6176589,64.9441292 23.9187156,65.2343644 23.403949,65.7505491 C22.8891823,66.2667339 22.6008711,66.966473 22.6025918,67.6954644 L22.6025841,68.9794816 L28.0907204,68.9794816 L28.0907127,67.6954644 C28.0924335,66.966473 27.8041222,66.2667339 27.2893556,65.7505491 C26.7745889,65.2343644 26.0756457,64.9441292 25.3466523,64.9438445 Z" id="Path"></path>
                            <path d="M22.6025918,71.2051836 C22.6025918,72.7206863 23.8311495,73.9492441 25.3466523,73.9492441 C26.862155,73.9492441 28.0907127,72.7206863 28.0907127,71.2051836 L28.0907127,68.9794816 L22.6025918,68.9794816 L22.6025918,71.2051836 Z" id="Path"></path>
                            <path d="M35.7634989,64.9438445 C35.0345055,64.9441292 34.3355623,65.2343644 33.8207956,65.7505491 C33.3060289,66.2667339 33.0177177,66.966473 33.0194384,67.6954644 L33.0194308,68.9794816 L38.5075671,68.9794816 L38.5075594,67.6954644 C38.5092801,66.966473 38.2209689,66.2667339 37.7062022,65.7505491 C37.1914356,65.2343644 36.4924923,64.9441292 35.7634989,64.9438445 Z" id="Path"></path>
                            <path d="M19.0961123,38.0021598 L42.8725702,38.0021598 L42.8790497,37.8941685 C48.5677126,37.122721 52.6875051,32.0779808 52.3066955,26.349892 C51.9514039,20.950324 47.487041,16.5151188 42.087473,16.1792657 C41.8563715,16.1717063 41.6285097,16.1609071 41.4082073,16.1609071 C38.3785079,16.1567752 35.484741,17.4181006 33.425486,19.6403888 C32.6827168,20.4332785 31.6447683,20.8831848 30.5583153,20.8831848 C29.4718623,20.8831848 28.4339139,20.4332785 27.6911447,19.6403888 C25.6322796,17.4175514 22.7382597,16.1561158 19.7084233,16.1609071 C19.4924406,16.1609071 19.2678186,16.1684665 19.0399568,16.1792657 C13.5442765,16.5161987 9.04103672,21.0928726 8.80237581,26.5896328 C8.53209536,32.5646426 13.1241172,37.6427482 19.0961123,37.9730022 L19.0961123,38.0021598 Z" id="Path"></path>
                            <path d="M33.0194384,71.2051836 C33.0194384,72.7206863 34.2479962,73.9492441 35.7634989,73.9492441 C37.2790017,73.9492441 38.5075594,72.7206863 38.5075594,71.2051836 L38.5075594,68.9794816 L33.0194384,68.9794816 L33.0194384,71.2051836 Z" id="Path"></path>
                            <path d="M19.0961123,37.9719222 L19.0961123,38.0021598 L42.8725702,38.0021598 L42.8790497,37.8941685 C48.5677126,37.122721 52.6875051,32.0779808 52.3066955,26.349892 C51.9514039,20.950324 47.487041,16.5151188 42.087473,16.1792657 C41.8563715,16.1717063 41.6285097,16.1609071 41.4082073,16.1609071 C38.3785079,16.1567752 35.484741,17.4181006 33.425486,19.6403888 C32.6827168,20.4332785 31.6447683,20.8831848 30.5583153,20.8831848 C29.4718623,20.8831848 28.4339139,20.4332785 27.6911447,19.6403888 C25.6322796,17.4175514 22.7382597,16.1561158 19.7084233,16.1609071 C19.4924406,16.1609071 19.2678186,16.1684665 19.0399568,16.1792657 C13.5442765,16.5161987 9.04103672,21.0928726 8.80237581,26.5896328 C8.53270588,32.5642305 13.1245572,37.6416658 19.0961123,37.9719222 Z" id="Path"></path>
                            <path d="M13.7958963,11.8066955 C21.3272138,14.2710583 29.4794816,14.0097192 37.338013,13.0269978 C42.7580994,12.3488121 48.2138229,11.3164147 53.1274298,8.92332613 C55.5085397,7.78113651 57.7020871,6.28345046 59.6328294,4.48164147 L59.6328294,2.31209503 C59.6339795,1.44590284 59.1264596,0.659751248 58.3365946,0.304218705 C57.5467295,-0.051313838 56.6217258,0.0900330516 55.9740821,0.665226782 L48.424406,7.43088553 C43.4028078,3.99568035 37.1306695,2.12095032 30.5550756,2.12095032 C24.1220302,2.12095032 17.9578834,3.9287257 12.9773218,7.24406048 L5.09395248,0.61987041 C4.43818202,0.0705819215 3.52344666,-0.0487339986 2.74871887,0.313963675 C1.97399108,0.676661348 1.47977998,1.45559167 1.48164147,2.31101512 L1.48164147,3.8488121 C4.69546436,7.53131749 9.11555076,10.275378 13.7958963,11.8066955 Z" id="Path" fill="#043654"></path>
                            <path d="M31.4892009,28.9416847 C30.9662203,28.4483922 30.1493305,28.4483922 29.6263499,28.9416847 L27.8822894,30.5842333 C27.4245328,31.0183446 27.3265131,31.7107483 27.6457883,32.2548596 L29.3855292,36.0226782 C29.6292992,36.4388601 30.0754568,36.6945901 30.5577754,36.6945901 C31.040094,36.6945901 31.4862515,36.4388601 31.7300216,36.0226782 L33.4697624,32.2548596 C33.7931425,31.708782 33.6924581,31.0111828 33.2278618,30.5788337 L31.4892009,28.9416847 Z" id="Path"></path>
                            <path d="M38.2688985,26.7591793 C38.2688985,31.6360691 45.5799136,31.6360691 45.5799136,26.7591793 C45.5799136,21.8822894 38.2688985,21.8866091 38.2688985,26.7591793 Z" id="Path"></path>
                            <path d="M15.8218143,26.7591793 C15.8218143,31.6360691 23.1360691,31.6360691 23.1360691,26.7591793 C23.1360691,21.8822894 15.8218143,21.8866091 15.8218143,26.7591793 Z" id="Path"></path>
                            <path d="M47.9330454,22.4794816 C46.8596112,20.8682505 45.3650108,19.3477322 43.4514039,19.0593952 C41.1069114,18.7030238 38.9438445,20.2537797 37.0799136,21.7257019 C35.2159827,23.1976242 33.0766739,24.7634989 30.7278618,24.4395248 C28.8034557,24.174946 27.3066955,22.7051836 25.6317495,21.7213823 C21.7926566,19.4676026 16.5475162,19.925486 13.1587473,22.812095 C10.8650108,24.7656587 9.53455724,27.7354212 9.41468683,30.737581 C10.8888188,34.87776 14.7026699,37.7296352 19.0907127,37.9730022 L19.0907127,38.0032397 L42.8725702,38.0032397 L42.8790497,37.8952484 C46.2250779,37.438803 49.1723877,35.4617058 50.8639309,32.5388769 C50.9175789,28.9677384 49.8964283,25.462942 47.9330454,22.4794816 Z M15.8218143,26.7591793 C15.8218143,21.8866091 23.1360691,21.8866091 23.1360691,26.7591793 C23.1360691,31.6317495 15.8218143,31.6414687 15.8218143,26.7591793 Z M33.4676026,32.2548596 L31.7278618,36.0226782 C31.4840917,36.4388601 31.0379341,36.6945901 30.5556156,36.6945901 C30.073297,36.6945901 29.6271394,36.4388601 29.3833693,36.0226782 L27.6457883,32.2548596 C27.3241374,31.709011 27.4232184,31.0132024 27.8844492,30.5788337 L29.6263499,28.9416847 C30.1493305,28.4483922 30.9662203,28.4483922 31.4892009,28.9416847 L33.2257019,30.5842333 C33.687521,31.0157955 33.7880435,31.710029 33.4676026,32.2548596 Z M38.2688985,26.7591793 C38.2688985,21.8866091 45.5799136,21.8866091 45.5799136,26.7591793 C45.5799136,31.6317495 38.2688985,31.6414687 38.2688985,26.7591793 Z" id="Shape" fill="#FFDF00" fill-rule="nonzero"></path>
                            <path d="M52.3066955,26.349892 C51.9514039,20.950324 47.487041,16.5151188 42.087473,16.1792657 C41.8563715,16.1717063 41.6285097,16.1609071 41.4082073,16.1609071 C38.3785079,16.1567752 35.484741,17.4181006 33.425486,19.6403888 C32.6827168,20.4332785 31.6447683,20.8831848 30.5583153,20.8831848 C29.4718623,20.8831848 28.4339139,20.4332785 27.6911447,19.6403888 C25.6322796,17.4175514 22.7382597,16.1561158 19.7084233,16.1609071 C19.4924406,16.1609071 19.2678186,16.1684665 19.0399568,16.1792657 C13.5442765,16.5161987 9.04103672,21.0928726 8.80237581,26.5896328 C8.73788995,27.9995823 8.94767239,29.4086455 9.42008639,30.7386609 C9.5399568,27.7365011 10.8704104,24.7667387 13.1641469,22.8131749 C16.5529158,19.9265659 21.8034557,19.4654428 25.637149,21.7224622 C27.312095,22.7062635 28.8088553,24.1760259 30.7332613,24.4406048 C33.0820734,24.7645788 35.2278618,23.1987041 37.0853132,21.7267819 C38.9427646,20.2548596 41.1069114,18.7030238 43.4568035,19.0604752 C45.3704104,19.3509719 46.8650108,20.8693305 47.9384449,22.4805616 C49.8997153,25.4643245 50.9189622,28.9686676 50.8639309,32.5388769 C51.9504144,30.6655779 52.4527955,28.5105286 52.3066955,26.349892 Z" id="Path" fill="#FFFFFF"></path>
                        </g>
                    </g>
                </g>
            </g>
        </g>
    </g>
</svg>