<?xml version="1.0" encoding="UTF-8"?>
<svg width="20px" height="20px" viewBox="0 0 20 20" version="1.1" xmlns="http://www.w3.org/2000/svg" xmlns:xlink="http://www.w3.org/1999/xlink">
    <!-- Generator: Sketch 52.6 (67491) - http://www.bohemiancoding.com/sketch -->
    <title>Combined Shape</title>
    <desc>Created with Sketch.</desc>
    <defs>
        <path d="M10,19.1666667 C4.93738979,19.1666667 0.833333333,15.0626102 0.833333333,10 C0.833333333,4.93738979 4.93738979,0.833333333 10,0.833333333 C15.0626102,0.833333333 19.1666667,4.93738979 19.1666667,10 C19.1666667,15.0626102 15.0626102,19.1666667 10,19.1666667 Z M10,17.5 C14.1421356,17.5 17.5,14.1421356 17.5,10 C17.5,5.85786438 14.1421356,2.5 10,2.5 C5.85786438,2.5 2.5,5.85786438 2.5,10 C2.5,14.1421356 5.85786438,17.5 10,17.5 Z M10.8333333,13.3333333 C10.8333333,13.7935706 10.4602373,14.1666667 10,14.1666667 C9.53976271,14.1666667 9.16666667,13.7935706 9.16666667,13.3333333 L9.16666667,10 C9.16666667,9.53976271 9.53976271,9.16666667 10,9.16666667 C10.4602373,9.16666667 10.8333333,9.53976271 10.8333333,10 L10.8333333,13.3333333 Z M9.41074435,8.08925565 C9.08530744,7.76381874 9.08530744,7.23618126 9.41074435,6.91074435 C9.73618126,6.58530744 10.2638187,6.58530744 10.5892557,6.91074435 C10.9146926,7.23618126 10.9146926,7.76381874 10.5892557,8.08925565 C10.2638187,8.41469256 9.73618126,8.41469256 9.41074435,8.08925565 Z" id="path-1"></path>
    </defs>
    <g id="Page-1" stroke="none" stroke-width="1" fill="none" fill-rule="evenodd">
        <g id="info">
            <mask id="mask-2" fill="white">
                <use xlink:href="#path-1"></use>
            </mask>
            <use id="Combined-Shape" fill="#004FB6" fill-rule="nonzero" xlink:href="#path-1"></use>
        </g>
    </g>
</svg>