<?xml version="1.0" encoding="UTF-8"?>
<svg width="265px" height="176px" viewBox="0 0 265 176" version="1.1" xmlns="http://www.w3.org/2000/svg" xmlns:xlink="http://www.w3.org/1999/xlink">
    <!-- Generator: Sketch 52.3 (67297) - http://www.bohemiancoding.com/sketch -->
    <title>Path 6 Copy 2</title>
    <desc>Created with Sketch.</desc>
    <g id="Page-1" stroke="none" stroke-width="1" fill="none" fill-rule="evenodd">
        <path d="M265,176 C88.3333333,145.497302 8.02944696e-15,86.9873705 0,0.470206805 C0,-86.0469569 0,-18.6325912 0,202.713304 L265,202.713304" id="Path-6-Copy-2" fill="#FFE000"></path>
    </g>
</svg>